…
### Pulling the Data

First, we will pull data from the API to create new tibbles using the
`Get_OB_DataFrame()` function to contact, query, and parse the API data.
`CA_Brew` is a new tibble with 50 breweries in the state of California;
`IreEng_Brew` is a new tibble with 100 breweries, 50 in Ireland and 50
in England; and `USA_Brew` is a new tibble with 50 breweries located
within the United States.

``` r
CA_Brew <- Get_OB_DataFrame(size = 50, search_by = "state", input = "California")
CA_Brew
```

    ## # A tibble: 50 × 9
    ##    id                                          name          brewe…¹ city  state count…² country latit…³ longi…⁴
    ##    <chr>                                       <chr>         <fct>   <chr> <chr> <lgl>   <chr>     <dbl>   <dbl>
    ##  1 10-barrel-brewing-co-san-diego              10 Barrel Br… large   San … Cali… NA      United…    32.7   -117.
    ##  2 101-north-brewing-company-petaluma          101 North Br… closed  Peta… Cali… NA      United…    38.3   -123.
    ##  3 14-cannons-brewing-company-westlake-village 14 Cannons B… micro   West… Cali… NA      United…    34.2   -119.
    ##  4 1850-brewing-company-mariposa               1850 Brewing… micro   Mari… Cali… NA      United…    37.6   -120.
    ##  5 2-tread-brewing-co-santa-rosa               2 Tread Brew… brewpub Sant… Cali… NA      United…    38.4   -123.
    ##  6 21st-amendment-brewery-san-leandro          21st Amendme… region… San … Cali… NA      United…    37.7   -122.
    ##  7 21st-amendment-brewery-cafe-san-francisco   21st Amendme… brewpub San … Cali… NA      United…    37.8   -122.
    ##  8 2kids-brewing-company-san-diego             2Kids Brewin… micro   San … Cali… NA      United…    32.9   -117.
    ##  9 3-disciples-brewing-sebastopol              3 Disciples … micro   Seba… Cali… NA      United…    38.4   -123.
    ## 10 3-iron-brewing-company-colton               3 Iron Brewi… micro   Colt… Cali… NA      United…    34.1   -117.
    ## # … with 40 more rows, and abbreviated variable names ¹​brewery_type, ²​county_province, ³​latitude, ⁴​longitude

``` r
IRE_Brew <- Get_OB_DataFrame(size = 50, search_by = "country", input = "Ireland")
ENG_Brew <- Get_OB_DataFrame(size = 50, search_by = "country", input = "England")
IreEng_Brew <- rbind(IRE_Brew, ENG_Brew)
IreEng_Brew
```

    ## # A tibble: 100 × 9
    ##    id                                       name             brewe…¹ city  state count…² country latit…³ longi…⁴
    ##    <chr>                                    <chr>            <fct>   <chr> <lgl> <chr>   <chr>     <dbl>   <dbl>
    ##  1 12-acres-brewing-company-killeshin       12 Acres Brewin… micro   Kill… NA    Laois   Ireland    52.8   -6.98
    ##  2 5-lamps-brewery-dublin                   5 Lamps Brewery  region… Dubl… NA    Dublin  Ireland    53.3   -6.27
    ##  3 9-white-deer-brewery-macroom             9 White Deer Br… micro   Macr… NA    Cork    Ireland    51.9   -9.15
    ##  4 ballykilcavan-brewing-company-stradbally Ballykilcavan B… micro   Stra… NA    Laois   Ireland    53.0   -7.12
    ##  5 barrelhead-brewery-dublin                Barrelhead Brew… micro   Dubl… NA    Dublin  Ireland    53.4   -6.24
    ##  6 beamish-and-crawford-heineken-cork       Beamish and Cra… large   Cork  NA    Cork    Ireland    51.9   -8.48
    ##  7 black-donkey-brewing-ballinlough         Black Donkey Br… micro   Ball… NA    Roscom… Ireland    53.7   -8.64
    ##  8 blacks-brewery-kinsale                   Blacks Brewery   micro   Kins… NA    Cork    Ireland    51.7   -8.52
    ##  9 bo-bristle-brewing-co-banagher           Bo Bristle Brew… micro   Bana… NA    Offaly  Ireland    53.2   -7.99
    ## 10 boghopper-brewery-muff                   Boghopper Brewe… micro   Muff  NA    Donegal Ireland    55.1   -7.26
    ## # … with 90 more rows, and abbreviated variable names ¹​brewery_type, ²​county_province, ³​latitude, ⁴​longitude

``` r
USA_Brew <- Get_OB_DataFrame(size = 50, search_by = "country", input = "United States")
USA_Brew
```

    ## # A tibble: 50 × 9
    ##    id                                  name                  brewe…¹ city  state count…² country latit…³ longi…⁴
    ##    <chr>                               <chr>                 <fct>   <chr> <chr> <lgl>   <chr>     <dbl>   <dbl>
    ##  1 10-56-brewing-company-knox          10-56 Brewing Company micro   Knox  Indi… NA      United…    41.3   -86.6
    ##  2 10-barrel-brewing-co-bend-1         10 Barrel Brewing Co  large   Bend  Oreg… NA      United…    44.1  -121. 
    ##  3 10-barrel-brewing-co-bend-2         10 Barrel Brewing Co  large   Bend  Oreg… NA      United…    44.1  -121. 
    ##  4 10-barrel-brewing-co-portland       10 Barrel Brewing Co  large   Port… Oreg… NA      United…    45.5  -123. 
    ##  5 10-barrel-brewing-co-san-diego      10 Barrel Brewing Co  large   San … Cali… NA      United…    32.7  -117. 
    ##  6 10-barrel-brewing-co-bend-pub-bend  10 Barrel Brewing Co… large   Bend  Oreg… NA      United…    44.1  -121. 
    ##  7 10-barrel-brewing-co-boise-boise    10 Barrel Brewing Co… large   Boise Idaho NA      United…    43.6  -116. 
    ##  8 10-barrel-brewing-co-denver-denver  10 Barrel Brewing Co… large   Denv… Colo… NA      United…    39.8  -105. 
    ##  9 10-torr-distilling-and-brewing-reno 10 Torr Distilling a… micro   Reno  Neva… NA      United…    39.5  -120. 
    ## 10 101-brewery-quilcene                101 Brewery           brewpub Quil… Wash… NA      United…    47.8  -123. 
    ## # … with 40 more rows, and abbreviated variable names ¹​brewery_type, ²​county_province, ³​latitude, ⁴​longitude
…
``` r
CA_Brew$regions <- ifelse(CA_Brew$latitude <= 35.8, "Southern", "Northern")
CA_Brew
```

    ## # A tibble: 50 × 10
    ##    id                                          name  brewe…¹ city  state count…² country latit…³ longi…⁴ regions
    ##    <chr>                                       <chr> <fct>   <chr> <chr> <lgl>   <chr>     <dbl>   <dbl> <chr>  
    ##  1 10-barrel-brewing-co-san-diego              10 B… large   San … Cali… NA      United…    32.7   -117. Southe…
    ##  2 101-north-brewing-company-petaluma          101 … closed  Peta… Cali… NA      United…    38.3   -123. Northe…
    ##  3 14-cannons-brewing-company-westlake-village 14 C… micro   West… Cali… NA      United…    34.2   -119. Southe…
    ##  4 1850-brewing-company-mariposa               1850… micro   Mari… Cali… NA      United…    37.6   -120. Northe…
    ##  5 2-tread-brewing-co-santa-rosa               2 Tr… brewpub Sant… Cali… NA      United…    38.4   -123. Northe…
    ##  6 21st-amendment-brewery-san-leandro          21st… region… San … Cali… NA      United…    37.7   -122. Northe…
    ##  7 21st-amendment-brewery-cafe-san-francisco   21st… brewpub San … Cali… NA      United…    37.8   -122. Northe…
    ##  8 2kids-brewing-company-san-diego             2Kid… micro   San … Cali… NA      United…    32.9   -117. Southe…
    ##  9 3-disciples-brewing-sebastopol              3 Di… micro   Seba… Cali… NA      United…    38.4   -123. Northe…
    ## 10 3-iron-brewing-company-colton               3 Ir… micro   Colt… Cali… NA      United…    34.1   -117. Southe…
    ## # … with 40 more rows, and abbreviated variable names ¹​brewery_type, ²​county_province, ³​latitude, ⁴​longitude
…
``` r
USA_Brew <- USA_Brew %>% 
  mutate(regions = if_else(state %in% c("Connecticut", "Maine", "Massachusetts", "New Hampshire", "Rhode Island", "Vermont", "New Jersey", "New York", "Pennsylvania"), "Northeast",
                           ifelse(state %in% c("Indiana", "Illinois", "Michigan", "Ohio", "Wisconsin", "Iowa", "Kansas", "Minnesota", "Missouri", "Nebraska", "North Dakota", "South Dakota"), "Midwest",
                                  if_else(state %in% c("Delaware", "District of Columbia", "Florida", "Geogria", "Maryland", "North Carolina", "South Carolina", "Virginia", "West Virginia", "Alabama", "Kentucky", "Mississippi", "Tennessee", "Arkansas", "Louisiana", "Oklahoma", "Texas"), "South",
                                          if_else(state %in% c("Arizona", "Colorado", "Idaho", "New Mexico", "Montana", "Utah", "Nevada", "Wyoming", "Alaska", "California", "Hawaii", "Oregon", "Washington"), "West", "ERROR")))))
USA_Brew
```

    ## # A tibble: 50 × 10
    ##    id                                  name          brewe…¹ city  state count…² country latit…³ longi…⁴ regions
    ##    <chr>                               <chr>         <fct>   <chr> <chr> <lgl>   <chr>     <dbl>   <dbl> <chr>  
    ##  1 10-56-brewing-company-knox          10-56 Brewin… micro   Knox  Indi… NA      United…    41.3   -86.6 Midwest
    ##  2 10-barrel-brewing-co-bend-1         10 Barrel Br… large   Bend  Oreg… NA      United…    44.1  -121.  West   
    ##  3 10-barrel-brewing-co-bend-2         10 Barrel Br… large   Bend  Oreg… NA      United…    44.1  -121.  West   
    ##  4 10-barrel-brewing-co-portland       10 Barrel Br… large   Port… Oreg… NA      United…    45.5  -123.  West   
    ##  5 10-barrel-brewing-co-san-diego      10 Barrel Br… large   San … Cali… NA      United…    32.7  -117.  West   
    ##  6 10-barrel-brewing-co-bend-pub-bend  10 Barrel Br… large   Bend  Oreg… NA      United…    44.1  -121.  West   
    ##  7 10-barrel-brewing-co-boise-boise    10 Barrel Br… large   Boise Idaho NA      United…    43.6  -116.  West   
    ##  8 10-barrel-brewing-co-denver-denver  10 Barrel Br… large   Denv… Colo… NA      United…    39.8  -105.  West   
    ##  9 10-torr-distilling-and-brewing-reno 10 Torr Dist… micro   Reno  Neva… NA      United…    39.5  -120.  West   
    ## 10 101-brewery-quilcene                101 Brewery   brewpub Quil… Wash… NA      United…    47.8  -123.  West   
    ## # … with 40 more rows, and abbreviated variable names ¹​brewery_type, ²​county_province, ³​latitude, ⁴​longitude
…
``` r
USA_Brew2 <- USA_Brew %>%
  group_by(state) %>%
  summarize(Avg_Lat = round(mean(latitude), digits = 2),
            Avg_Long = round(mean(longitude), digits = 2),
            Median_Lat = round(median(latitude), digits = 2),
            Median_Long = round(median(longitude), digits = 2))
USA_Brew2
```

    ## # A tibble: 25 × 5
    ##    state         Avg_Lat Avg_Long Median_Lat Median_Long
    ##    <chr>           <dbl>    <dbl>      <dbl>       <dbl>
    ##  1 Arizona          NA       NA         NA          NA  
    ##  2 California       35.7   -120.        35.9      -119. 
    ##  3 Colorado         39.7   -105.        39.8      -105. 
    ##  4 Delaware         38.7    -75.4       38.7       -75.4
    ##  5 Idaho            43.6   -116.        43.6      -116. 
    ##  6 Illinois         39.5    -89.0       39.5       -89.0
    ##  7 Indiana          41.5    -87.1       41.6       -87.3
    ##  8 Maryland         NA       NA         NA          NA  
    ##  9 Massachusetts    42.1    -71.0       42.1       -71.0
    ## 10 Michigan         42.3    -84.4       42.3       -84.4
    ## # … with 15 more rows
…
